{
	"info": {
		"_postman_id": "c286263a-e1a0-42c1-9bb5-fef82a968f92",
		"name": "fazla gıda api",
		"schema": "https://schema.getpostman.com/json/collection/v2.1.0/collection.json"
	},
	"item": [
		{
			"name": "http://127.0.0.1:8000/api-token-auth/",
			"request": {
				"method": "POST",
				"header": [],
				"body": {
					"mode": "raw",
					"raw": "{\r\n\r\n    \"username\":\"admin@admin.com\",\r\n    \"password\":\"admin\"\r\n\r\n}",
					"options": {
						"raw": {
							"language": "json"
						}
					}
				},
				"url": {
					"raw": "http://127.0.0.1:8000/api-token-auth/",
					"protocol": "http",
					"host": [
						"127",
						"0",
						"0",
						"1"
					],
					"port": "8000",
					"path": [
						"api-token-auth",
						""
					]
				}
			},
			"response": []
		},
		{
			"name": "http://127.0.0.1:8000/api/add-favorite-store",
			"request": {
				"method": "POST",
				"header": [
					{
						"key": "Authorization",
						"value": "Token 3cbdd069afee8635491fa0679d9482dba513a169",
						"type": "text",
						"disabled": true
					},
					{
						"key": "X-CSRFToken",
						"value": "OSDqSddsVBXgVGfhAQz7Ky09DtqdKVE2itQs4ETljXZkkvNH3gnpB0h54SAcx7yG",
						"type": "text"
					}
				],
				"body": {
					"mode": "raw",
					"raw": "{\r\n    \"id\": 22\r\n}",
					"options": {
						"raw": {
							"language": "json"
						}
					}
				},
				"url": {
					"raw": "http://127.0.0.1:8000/api/add-favorite-store",
					"protocol": "http",
					"host": [
						"127",
						"0",
						"0",
						"1"
					],
					"port": "8000",
					"path": [
						"api",
						"add-favorite-store"
					]
				}
			},
			"response": []
		},
		{
			"name": "http://127.0.0.1:8000/api/add-favorite-store",
			"request": {
				"method": "POST",
				"header": [
					{
						"key": "Authorization",
						"value": "Token 3cbdd069afee8635491fa0679d9482dba513a169",
						"type": "text",
						"disabled": true
					},
					{
						"key": "X-CSRFToken",
						"value": "OSDqSddsVBXgVGfhAQz7Ky09DtqdKVE2itQs4ETljXZkkvNH3gnpB0h54SAcx7yG",
						"type": "text"
					}
				],
				"body": {
					"mode": "raw",
					"raw": "{\r\n    \"id\": 22\r\n}",
					"options": {
						"raw": {
							"language": "json"
						}
					}
				},
				"url": {
					"raw": "http://127.0.0.1:8000/api/add-favorite-product",
					"protocol": "http",
					"host": [
						"127",
						"0",
						"0",
						"1"
					],
					"port": "8000",
					"path": [
						"api",
						"add-favorite-product"
					]
				}
			},
			"response": []
		},
		{
			"name": "http://127.0.0.1:8000/api/add-favorite-store",
			"request": {
				"method": "DELETE",
				"header": [
					{
						"key": "Authorization",
						"value": "Token 3cbdd069afee8635491fa0679d9482dba513a169",
						"type": "text",
						"disabled": true
					},
					{
						"key": "X-CSRFToken",
						"value": "OSDqSddsVBXgVGfhAQz7Ky09DtqdKVE2itQs4ETljXZkkvNH3gnpB0h54SAcx7yG",
						"type": "text"
					}
				],
				"body": {
					"mode": "raw",
					"raw": "{\r\n    \"id\": 22\r\n}",
					"options": {
						"raw": {
							"language": "json"
						}
					}
				},
				"url": {
					"raw": "http://127.0.0.1:8000/api/add-favorite-product",
					"protocol": "http",
					"host": [
						"127",
						"0",
						"0",
						"1"
					],
					"port": "8000",
					"path": [
						"api",
						"add-favorite-product"
					]
				}
			},
			"response": []
		},
		{
			"name": "http://127.0.0.1:8000/api/add-favorite-store",
			"request": {
				"method": "DELETE",
				"header": [
					{
						"key": "Authorization",
						"value": "Token 3cbdd069afee8635491fa0679d9482dba513a169",
						"type": "text",
						"disabled": true
					},
					{
						"key": "X-CSRFToken",
						"value": "OSDqSddsVBXgVGfhAQz7Ky09DtqdKVE2itQs4ETljXZkkvNH3gnpB0h54SAcx7yG",
						"type": "text"
					}
				],
				"body": {
					"mode": "raw",
					"raw": "{\r\n    \"id\": 22\r\n}",
					"options": {
						"raw": {
							"language": "json"
						}
					}
				},
				"url": {
					"raw": "http://127.0.0.1:8000/api/add-favorite-store",
					"protocol": "http",
					"host": [
						"127",
						"0",
						"0",
						"1"
					],
					"port": "8000",
					"path": [
						"api",
						"add-favorite-store"
					]
				}
			},
			"response": []
		}
	]
}